<svg width="30" height="30" viewBox="0 0 30 30" fill="none" xmlns="http://www.w3.org/2000/svg">
<g id="&#240;&#159;&#166;&#134; icon &#34;circle dribble&#34;">
<path id="Vector" d="M14.9821 0C17.0609 0 19.0084 0.394265 20.8244 1.1828C22.6404 1.97133 24.2294 3.04062 25.5914 4.39068C26.9534 5.74074 28.0287 7.32378 28.8172 9.13979C29.6057 10.9558 30 12.9032 30 14.9821C30 17.0609 29.6057 19.0084 28.8172 20.8244C28.0287 22.6404 26.9534 24.2294 25.5914 25.5914C24.2294 26.9534 22.6404 28.0287 20.8244 28.8172C19.0084 29.6057 17.0609 30 14.9821 30C12.9032 30 10.9558 29.6057 9.13979 28.8172C7.32378 28.0287 5.74074 26.9534 4.39068 25.5914C3.04062 24.2294 1.97133 22.6404 1.1828 20.8244C0.394265 19.0084 0 17.0609 0 14.9821C0 12.9032 0.394265 10.9558 1.1828 9.13979C1.97133 7.32378 3.04062 5.74074 4.39068 4.39068C5.74074 3.04062 7.32378 1.97133 9.13979 1.1828C10.9558 0.394265 12.9032 0 14.9821 0ZM14.9821 23.4409C16.1529 23.4409 17.2521 23.2198 18.2796 22.7778C19.3071 22.3357 20.2031 21.7324 20.9677 20.9677C21.7324 20.2031 22.3357 19.3071 22.7778 18.2796C23.2198 17.2521 23.4409 16.1529 23.4409 14.9821C23.4409 13.8112 23.2198 12.718 22.7778 11.7025C22.3357 10.687 21.7324 9.79689 20.9677 9.03226C20.2031 8.26762 19.3071 7.66428 18.2796 7.22222C17.2521 6.78017 16.1529 6.55914 14.9821 6.55914C13.8351 6.55914 12.7479 6.78017 11.7204 7.22222C10.693 7.66428 9.79689 8.26762 9.03226 9.03226C8.26762 9.79689 7.66428 10.687 7.22222 11.7025C6.78017 12.718 6.55914 13.8112 6.55914 14.9821C6.55914 16.1529 6.78017 17.2521 7.22222 18.2796C7.66428 19.3071 8.26762 20.2031 9.03226 20.9677C9.79689 21.7324 10.693 22.3357 11.7204 22.7778C12.7479 23.2198 13.8351 23.4409 14.9821 23.4409ZM15.6989 15.233C14.4803 15.6392 13.3751 16.2246 12.3835 16.9892C11.3919 17.7539 10.5376 18.6738 9.82079 19.7491C8.69773 18.5066 8.07646 17.0251 7.95699 15.3047C8.14815 15.3286 8.32139 15.3405 8.4767 15.3405H8.96057C11.1589 15.3405 13.2616 14.9701 15.2688 14.2294L15.4839 14.7312L15.6989 15.233ZM16.595 13.6918C18.1004 13.0227 19.4982 12.1386 20.7885 11.0394C21.601 12.2103 22.0072 13.5125 22.0072 14.9462C21.0992 14.7312 20.2151 14.6237 19.3548 14.6237C18.5663 14.6237 17.8017 14.7073 17.0609 14.8746C16.9892 14.6834 16.9176 14.4863 16.8459 14.2832C16.7742 14.08 16.6906 13.8829 16.595 13.6918ZM10.8961 20.7168C11.5173 19.7133 12.282 18.859 13.19 18.1541C14.098 17.4492 15.0896 16.9176 16.1649 16.5591C16.4277 17.3716 16.6428 18.2019 16.81 19.0502C16.9773 19.8984 17.1087 20.7646 17.2043 21.6487C16.5114 21.8877 15.7706 22.0072 14.9821 22.0072C13.4767 22.0072 12.1147 21.5771 10.8961 20.7168ZM17.5269 16.2007C18.1959 16.0812 18.8053 16.0215 19.3548 16.0215C20.2389 16.0215 21.0753 16.141 21.8638 16.3799C21.6726 17.3596 21.2903 18.2557 20.7168 19.0681C20.1434 19.8805 19.4265 20.5376 18.5663 21.0394C18.399 19.4146 18.0526 17.8017 17.5269 16.2007ZM19.8925 9.96416C19.2712 10.466 18.638 10.9259 17.9928 11.3441C17.3477 11.7622 16.6786 12.1266 15.9857 12.4373C15.5795 11.6965 15.1434 10.9737 14.6774 10.2688C14.2115 9.56392 13.7037 8.87694 13.1541 8.20789C13.7276 8.04062 14.3369 7.95699 14.9821 7.95699C15.914 7.95699 16.7981 8.13023 17.6344 8.4767C18.4707 8.82318 19.2234 9.319 19.8925 9.96416ZM14.6595 12.9749C12.8196 13.6201 10.92 13.9427 8.96057 13.9427H8.4767L8.06452 13.9068C8.23178 12.8076 8.63799 11.8041 9.28315 10.8961C9.92832 9.98805 10.7527 9.27121 11.7563 8.74552C12.8793 10.0358 13.8471 11.4456 14.6595 12.9749Z" fill="#252525"/>
</g>
</svg>
